{
"armslegs/l-hand-fingers-length-decr|incr": -0.140000,
"macrodetails-universal/Muscle": 0.806000,
"macrodetails/African": 0.578299,
"macrodetails-proportions/BodyProportions": 0.785000,
"torso/torso-scale-horiz-decr|incr": 0.022000,
"neck/neck-scale-depth-decr|incr": 0.290000,
"neck/neck-scale-horiz-decr|incr": 0.216000,
"armslegs/r-hand-fingers-length-decr|incr": -0.140000,
"macrodetails/Gender": 0.919000,
"torso/torso-scale-vert-decr|incr": 0.044000,
"macrodetails-height/Height": 0.618000,
"breast/BreastSize": 0.500000,
"armslegs/l-hand-fingers-diameter-decr|incr": 0.162000,
"armslegs/r-hand-fingers-diameter-decr|incr": 0.248000,
"armslegs/l-hand-scale-decr|incr": 0.182000,
"macrodetails/Age": 0.575000,
"breast/BreastFirmness": 0.500000,
"macrodetails/Asian": 0.145000,
"armslegs/r-hand-scale-decr|incr": 0.182000,
"armslegs/l-hand-fingers-distance-decr|incr": 0.182000,
"macrodetails/Caucasian": 0.276701,
"torso/torso-scale-depth-decr|incr": 0.236000,
"armslegs/r-hand-fingers-distance-decr|incr": 0.182000,
"torso/torso-trans-in|out": -0.182000,
"macrodetails-universal/Weight": 0.866000
}
